simulation/dump.vcd
$date
	Tue Oct 28 11:28:53 2025
$end
$version
	Icarus Verilog
$end
$timescale
	1ps
$end
$scope module sync_fifo_tb $end
$var wire 1 ! full $end
$var wire 1 " empty $end
$var wire 16 # dout [15:0] $end
$var parameter 32 $ Depth $end
$var parameter 32 % Width $end
$var reg 1 & clk $end
$var reg 16 ' din [15:0] $end
$var reg 1 ( r_enb $end
$var reg 1 ) reset $end
$var reg 1 * w_enb $end
$scope module DUT $end
$var wire 1 & clk $end
$var wire 16 + din [15:0] $end
$var wire 1 ( r_enb $end
$var wire 1 ) reset $end
$var wire 1 * w_enb $end
$var wire 1 ! full $end
$var wire 1 " empty $end
$var parameter 32 , Depth $end
$var parameter 32 - Width $end
$var reg 4 . count [3:0] $end
$var reg 16 / dout [15:0] $end
$var reg 3 0 rptr [2:0] $end
$var reg 3 1 wptr [2:0] $end
$upscope $end
$upscope $end
$enddefinitions $end
$comment Show the parameter values. $end
$dumpall
b10000 -
b1000 ,
b10000 %
b1000 $
$end
#0
$dumpvars
b0 1
b0 0
b0 /
b0 .
b0 +
0*
1)
0(
b0 '
0&
b0 #
1"
0!
$end
#5000
1&
#10000
0&
#15000
1&
0)
#20000
0&
#25000
0"
b1 .
b1 1
b11010100100100 '
b11010100100100 +
1*
1&
#30000
0&
#35000
b10 .
b10 1
b101111010000001 '
b101111010000001 +
1&
#40000
0&
#45000
b11 .
b11 1
b1101011000001001 '
b1101011000001001 +
1&
#50000
0&
#55000
b100 .
b100 1
b101011001100011 '
b101011001100011 +
1&
#60000
0&
#65000
b101 .
b101 1
b111101100001101 '
b111101100001101 +
1&
#70000
0&
#75000
b110 .
b110 1
b1001100110001101 '
b1001100110001101 +
1&
#80000
0&
#85000
b111 .
b111 1
b1000010001100101 '
b1000010001100101 +
1&
#90000
0&
#95000
1!
b1000 .
b0 1
b101001000010010 '
b101001000010010 +
1&
#100000
0&
#105000
0*
1&
#110000
0&
#115000
b1110001100000001 '
b1110001100000001 +
1*
1&
#120000
0&
#125000
0*
b1100110100001101 '
b1100110100001101 +
1&
#130000
0&
#135000
0!
b111 .
b1 0
b11010100100100 #
b11010100100100 /
1(
1&
#140000
0&
#145000
b110 .
b10 0
b101111010000001 #
b101111010000001 /
1&
#150000
0&
#155000
b101 .
b11 0
b1101011000001001 #
b1101011000001001 /
1&
#160000
0&
#165000
b100 .
b100 0
b101011001100011 #
b101011001100011 /
1&
#170000
0&
#175000
b11 .
b101 0
b111101100001101 #
b111101100001101 /
1&
#180000
0&
#185000
b10 .
b110 0
b1001100110001101 #
b1001100110001101 /
1&
#190000
0&
#195000
b1 .
b111 0
b1000010001100101 #
b1000010001100101 /
1&
#200000
0&
#205000
1"
b0 .
b0 0
b101001000010010 #
b101001000010010 /
1&
#210000
0&
#215000
0(
1&
#220000
0&
#225000
1(
1&
#230000
0&
#235000
0(
1&
#240000
0&
#245000
0"
b1 .
b1 1
b1111000101110110 '
b1111000101110110 +
1(
1*
1&
#250000
0&
#255000
b1 0
b1111000101110110 #
b1111000101110110 /
b10 1
b1100110100111101 '
b1100110100111101 +
1&
#260000
0&
#265000
b10 0
b1100110100111101 #
b1100110100111101 /
b11 1
b101011111101101 '
b101011111101101 +
1&
#270000
0&
#275000
0(
0*
b1111011110001100 '
b1111011110001100 +
1&
#280000
0&
#285000
b10 .
b100 1
b1110100111111001 '
b1110100111111001 +
1*
1&
#290000
0&
#295000
b1 .
b11 0
b101011111101101 #
b101011111101101 /
1(
0*
1&
#300000
0&
#305000
b10 .
b101 1
b10010011000110 '
b10010011000110 +
0(
1*
1&
#310000
0&
#315000
b1 .
b100 0
b1110100111111001 #
b1110100111111001 /
1(
0*
1&
#320000
0&
#325000
b10 .
b110 1
b1000010011000101 '
b1000010011000101 +
0(
1*
1&
#330000
0&
#335000
b1 .
b101 0
b10010011000110 #
b10010011000110 /
1(
0*
1&
#340000
0&
#345000
b10 .
b111 1
b1101001010101010 '
b1101001010101010 +
0(
1*
1&
#350000
0&
#355000
b1 .
b110 0
b1000010011000101 #
b1000010011000101 /
1(
0*
1&
#360000
0&
#365000
b10 .
b0 1
b1111011111100101 '
b1111011111100101 +
0(
1*
1&
#370000
0&
#375000
b1 .
b111 0
b1101001010101010 #
b1101001010101010 /
1(
0*
1&
#380000
0&
#385000
b10 .
b1 1
b111001001110111 '
b111001001110111 +
0(
1*
1&
#390000
0&
#395000
b1 .
b0 0
b1111011111100101 #
b1111011111100101 /
1(
0*
1&
#400000
0&
#405000
b10 .
b10 1
b1101011000010010 '
b1101011000010010 +
0(
1*
1&
#410000
0&
#415000
b1 .
b1 0
b111001001110111 #
b111001001110111 /
1(
0*
1&
#420000
0&
#425000
b10 .
b11 1
b1101101110001111 '
b1101101110001111 +
0(
1*
1&
#430000
0&
#435000
b1 .
b10 0
b1101011000010010 #
b1101011000010010 /
1(
0*
1&
#440000
0&
#445000
1"
b0 .
b11 0
b1101101110001111 #
b1101101110001111 /
1&
