simulation/dump.vcd
$date
	Wed Oct 29 04:28:39 2025
$end

$version
	Synopsys VCS version U-2023.03-SP2_Full64
$end

$timescale
	1ps
$end

$comment Csum: 1 1375e9091e45128c $end


$scope module tb_sync_fifo $end
$var reg 1 ! clk $end
$var reg 1 " reset $end
$var reg 1 # w_enb $end
$var reg 1 $ r_enb $end
$var reg 16 % din [15:0] $end
$var wire 16 & dout [15:0] $end
$var wire 1 ' full $end
$var wire 1 ( empty $end

$scope module DUT $end
$var wire 1 ! clk $end
$var wire 1 " reset $end
$var wire 1 # w_enb $end
$var wire 1 $ r_enb $end
$var wire 16 % din [15:0] $end
$var reg 16 & dout [15:0] $end
$var wire 1 ( empty $end
$var wire 1 ' full $end
$var reg 3 ) wptr [2:0] $end
$var reg 3 * rptr [2:0] $end
$var reg 4 + count [3:0] $end
$upscope $end

$upscope $end

$enddefinitions $end

#0
$dumpvars
0!
1(
0'
0$
1"
0#
b0000000000000000 &
b0000 +
b0000000000000000 %
b000 *
b000 )
$end
#5000
1!
#10000
0!
#15000
0"
1!
1#
b0011010100100100 %
b001 )
b0001 +
0(
#20000
0!
#25000
1!
b0101111010000001 %
b010 )
b0010 +
#30000
0!
#35000
1!
b1101011000001001 %
b011 )
b0011 +
#40000
0!
#45000
1!
b0101011001100011 %
b100 )
b0100 +
#50000
0!
#55000
1!
b0111101100001101 %
b101 )
b0101 +
#60000
0!
#65000
1!
b1001100110001101 %
b110 )
b0110 +
#70000
0!
#75000
1!
b1000010001100101 %
b111 )
b0111 +
#80000
0!
#85000
1!
b0101001000010010 %
b000 )
b1000 +
1'
#90000
0!
#95000
1!
0#
#100000
0!
#105000
1!
1#
b1110001100000001 %
#110000
0!
#115000
1!
0#
#120000
0!
#125000
1!
1$
b0011010100100100 &
b001 *
b0111 +
0'
#130000
0!
#135000
1!
b0101111010000001 &
b010 *
b0110 +
#140000
0!
#145000
1!
b1101011000001001 &
b011 *
b0101 +
#150000
0!
#155000
1!
b0101011001100011 &
b100 *
b0100 +
#160000
0!
#165000
1!
b0111101100001101 &
b101 *
b0011 +
#170000
0!
#175000
1!
b1001100110001101 &
b110 *
b0010 +
#180000
0!
#185000
1!
b1000010001100101 &
b111 *
b0001 +
#190000
0!
#195000
1!
b0101001000010010 &
b000 *
b0000 +
1(
#200000
0!
#205000
1!
0$
#210000
0!
#215000
1!
1$
#220000
0!
#225000
1!
0$
#230000
0!
#235000
1!
1#
1$
b1100110100001101 %
b001 )
b0001 +
0(
#240000
0!
#245000
1!
b1111000101110110 %
b010 )
b1100110100001101 &
b001 *
#250000
0!
#255000
1!
b1100110100111101 %
b011 )
b1111000101110110 &
b010 *
#260000
0!
#265000
1!
b0101011111101101 %
0#
0$
#270000
0!
#275000
1!
1#
b1111011110001100 %
b100 )
b0010 +
#280000
0!
#285000
1!
0#
1$
b1100110100111101 &
b011 *
b0001 +
#290000
0!
#295000
1!
1#
b1110100111111001 %
0$
b101 )
b0010 +
#300000
0!
#305000
1!
0#
1$
b1111011110001100 &
b100 *
b0001 +
#310000
0!
#315000
1!
1#
b0010010011000110 %
0$
b110 )
b0010 +
#320000
0!
#325000
1!
0#
1$
b1110100111111001 &
b101 *
b0001 +
#330000
0!
#335000
1!
1#
b1000010011000101 %
0$
b111 )
b0010 +
#340000
0!
#345000
1!
0#
1$
b0010010011000110 &
b110 *
b0001 +
#350000
0!
#355000
1!
1#
b1101001010101010 %
0$
b000 )
b0010 +
#360000
0!
#365000
1!
0#
1$
b1000010011000101 &
b111 *
b0001 +
#370000
0!
#375000
1!
1#
b1111011111100101 %
0$
b001 )
b0010 +
#380000
0!
#385000
1!
0#
1$
b1101001010101010 &
b000 *
b0001 +
#390000
0!
#395000
1!
1#
b0111001001110111 %
0$
b010 )
b0010 +
#400000
0!
#405000
1!
0#
1$
b1111011111100101 &
b001 *
b0001 +
#410000
0!
#415000
1!
1#
b1101011000010010 %
0$
b011 )
b0010 +
#420000
0!
#425000
1!
0#
1$
b0111001001110111 &
b010 *
b0001 +
#430000
0!
#435000
1!
b1101011000010010 &
b011 *
b0000 +
1(
